{
    "installed": {
        "client_id": "769759652297-qihvn67hmg9tkdtvhlvdqj1gadl95fv7.apps.googleusercontent.com",
        "project_id": "theta-cell-172123",
        "auth_uri": "https://accounts.google.com/o/oauth2/auth",
        "token_uri": "https://accounts.google.com/o/oauth2/token",
        "auth_provider_x509_cert_url": "https://www.googleapis.com/oauth2/v1/certs",
        "client_secret": "nj-9378v9LLE17PFgtp6_izk",
        "redirect_uris": [ "urn:ietf:wg:oauth:2.0:oob", "http://localhost" ]
    }
}